('/Users/cellis/Nextcloud/Scripts/chocCutter/build/chocCutter/PKG-00.pkg',
 {'BINARY': 1,
  'DATA': 1,
  'EXECUTABLE': 1,
  'EXTENSION': 1,
  'PYMODULE': 1,
  'PYSOURCE': 1,
  'PYZ': 0},
 [('PYZ-00.pyz',
   '/Users/cellis/Nextcloud/Scripts/chocCutter/build/chocCutter/PYZ-00.pyz',
   'PYZ'),
  ('_struct',
   '/Users/cellis/opt/anaconda3/lib/python3.8/lib-dynload/_struct.cpython-38-darwin.so',
   'EXTENSION'),
  ('zlib',
   '/Users/cellis/opt/anaconda3/lib/python3.8/lib-dynload/zlib.cpython-38-darwin.so',
   'EXTENSION'),
  ('struct',
   '/Users/cellis/opt/anaconda3/lib/python3.8/struct.pyo',
   'PYMODULE'),
  ('pyimod01_os_path',
   '/Users/cellis/opt/anaconda3/lib/python3.8/site-packages/PyInstaller/loader/pyimod01_os_path.pyc',
   'PYMODULE'),
  ('pyimod02_archive',
   '/Users/cellis/opt/anaconda3/lib/python3.8/site-packages/PyInstaller/loader/pyimod02_archive.pyc',
   'PYMODULE'),
  ('pyimod03_importers',
   '/Users/cellis/opt/anaconda3/lib/python3.8/site-packages/PyInstaller/loader/pyimod03_importers.pyc',
   'PYMODULE'),
  ('pyiboot01_bootstrap',
   '/Users/cellis/opt/anaconda3/lib/python3.8/site-packages/PyInstaller/loader/pyiboot01_bootstrap.py',
   'PYSOURCE'),
  ('pyi_rth__tkinter',
   '/Users/cellis/opt/anaconda3/lib/python3.8/site-packages/PyInstaller/loader/rthooks/pyi_rth__tkinter.py',
   'PYSOURCE'),
  ('pyi_rth_multiprocessing',
   '/Users/cellis/opt/anaconda3/lib/python3.8/site-packages/PyInstaller/loader/rthooks/pyi_rth_multiprocessing.py',
   'PYSOURCE'),
  ('pyi_rth_pkgres',
   '/Users/cellis/opt/anaconda3/lib/python3.8/site-packages/PyInstaller/loader/rthooks/pyi_rth_pkgres.py',
   'PYSOURCE'),
  ('chocCutter',
   '/Users/cellis/Nextcloud/Scripts/chocCutter/chocCutter.py',
   'PYSOURCE'),
  ('libmkl_core.dylib',
   '/Users/cellis/opt/anaconda3/lib/libmkl_core.dylib',
   'BINARY'),
  ('libmkl_avx512.dylib',
   '/Users/cellis/opt/anaconda3/lib/libmkl_avx512.dylib',
   'BINARY'),
  ('libmkl_avx.dylib',
   '/Users/cellis/opt/anaconda3/lib/libmkl_avx.dylib',
   'BINARY'),
  ('libmkl_vml_mc2.dylib',
   '/Users/cellis/opt/anaconda3/lib/libmkl_vml_mc2.dylib',
   'BINARY'),
  ('libmkl_intel_thread.dylib',
   '/Users/cellis/opt/anaconda3/lib/libmkl_intel_thread.dylib',
   'BINARY'),
  ('libmkl_cdft_core.dylib',
   '/Users/cellis/opt/anaconda3/lib/libmkl_cdft_core.dylib',
   'BINARY'),
  ('libmkl_intel_ilp64.dylib',
   '/Users/cellis/opt/anaconda3/lib/libmkl_intel_ilp64.dylib',
   'BINARY'),
  ('libmkl_blacs_mpich_ilp64.dylib',
   '/Users/cellis/opt/anaconda3/lib/libmkl_blacs_mpich_ilp64.dylib',
   'BINARY'),
  ('libmkl_intel_lp64.dylib',
   '/Users/cellis/opt/anaconda3/lib/libmkl_intel_lp64.dylib',
   'BINARY'),
  ('libmkl_scalapack_ilp64.dylib',
   '/Users/cellis/opt/anaconda3/lib/libmkl_scalapack_ilp64.dylib',
   'BINARY'),
  ('libmkl_sequential.dylib',
   '/Users/cellis/opt/anaconda3/lib/libmkl_sequential.dylib',
   'BINARY'),
  ('libmkl_mc3.dylib',
   '/Users/cellis/opt/anaconda3/lib/libmkl_mc3.dylib',
   'BINARY'),
  ('libmkl_rt.dylib',
   '/Users/cellis/opt/anaconda3/lib/libmkl_rt.dylib',
   'BINARY'),
  ('libmkl_vml_avx2.dylib',
   '/Users/cellis/opt/anaconda3/lib/libmkl_vml_avx2.dylib',
   'BINARY'),
  ('libmkl_vml_avx512.dylib',
   '/Users/cellis/opt/anaconda3/lib/libmkl_vml_avx512.dylib',
   'BINARY'),
  ('libmkl_avx2.dylib',
   '/Users/cellis/opt/anaconda3/lib/libmkl_avx2.dylib',
   'BINARY'),
  ('libmkl_vml_mc.dylib',
   '/Users/cellis/opt/anaconda3/lib/libmkl_vml_mc.dylib',
   'BINARY'),
  ('libmkl_scalapack_lp64.dylib',
   '/Users/cellis/opt/anaconda3/lib/libmkl_scalapack_lp64.dylib',
   'BINARY'),
  ('libmkl_blacs_mpich_lp64.dylib',
   '/Users/cellis/opt/anaconda3/lib/libmkl_blacs_mpich_lp64.dylib',
   'BINARY'),
  ('libmkl_mc.dylib',
   '/Users/cellis/opt/anaconda3/lib/libmkl_mc.dylib',
   'BINARY'),
  ('libmkl_tbb_thread.dylib',
   '/Users/cellis/opt/anaconda3/lib/libmkl_tbb_thread.dylib',
   'BINARY'),
  ('libmkl_vml_mc3.dylib',
   '/Users/cellis/opt/anaconda3/lib/libmkl_vml_mc3.dylib',
   'BINARY'),
  ('libmkl_vml_avx.dylib',
   '/Users/cellis/opt/anaconda3/lib/libmkl_vml_avx.dylib',
   'BINARY'),
  ('array',
   '/Users/cellis/opt/anaconda3/lib/python3.8/lib-dynload/array.cpython-38-darwin.so',
   'EXTENSION'),
  ('_ctypes',
   '/Users/cellis/opt/anaconda3/lib/python3.8/lib-dynload/_ctypes.cpython-38-darwin.so',
   'EXTENSION'),
  ('mmap',
   '/Users/cellis/opt/anaconda3/lib/python3.8/lib-dynload/mmap.cpython-38-darwin.so',
   'EXTENSION'),
  ('_bisect',
   '/Users/cellis/opt/anaconda3/lib/python3.8/lib-dynload/_bisect.cpython-38-darwin.so',
   'EXTENSION'),
  ('_multiprocessing',
   '/Users/cellis/opt/anaconda3/lib/python3.8/lib-dynload/_multiprocessing.cpython-38-darwin.so',
   'EXTENSION'),
  ('_queue',
   '/Users/cellis/opt/anaconda3/lib/python3.8/lib-dynload/_queue.cpython-38-darwin.so',
   'EXTENSION'),
  ('_posixshmem',
   '/Users/cellis/opt/anaconda3/lib/python3.8/lib-dynload/_posixshmem.cpython-38-darwin.so',
   'EXTENSION'),
  ('_random',
   '/Users/cellis/opt/anaconda3/lib/python3.8/lib-dynload/_random.cpython-38-darwin.so',
   'EXTENSION'),
  ('_hashlib',
   '/Users/cellis/opt/anaconda3/lib/python3.8/lib-dynload/_hashlib.cpython-38-darwin.so',
   'EXTENSION'),
  ('_sha3',
   '/Users/cellis/opt/anaconda3/lib/python3.8/lib-dynload/_sha3.cpython-38-darwin.so',
   'EXTENSION'),
  ('_blake2',
   '/Users/cellis/opt/anaconda3/lib/python3.8/lib-dynload/_blake2.cpython-38-darwin.so',
   'EXTENSION'),
  ('_sha256',
   '/Users/cellis/opt/anaconda3/lib/python3.8/lib-dynload/_sha256.cpython-38-darwin.so',
   'EXTENSION'),
  ('_md5',
   '/Users/cellis/opt/anaconda3/lib/python3.8/lib-dynload/_md5.cpython-38-darwin.so',
   'EXTENSION'),
  ('_sha1',
   '/Users/cellis/opt/anaconda3/lib/python3.8/lib-dynload/_sha1.cpython-38-darwin.so',
   'EXTENSION'),
  ('_sha512',
   '/Users/cellis/opt/anaconda3/lib/python3.8/lib-dynload/_sha512.cpython-38-darwin.so',
   'EXTENSION'),
  ('math',
   '/Users/cellis/opt/anaconda3/lib/python3.8/lib-dynload/math.cpython-38-darwin.so',
   'EXTENSION'),
  ('binascii',
   '/Users/cellis/opt/anaconda3/lib/python3.8/lib-dynload/binascii.cpython-38-darwin.so',
   'EXTENSION'),
  ('select',
   '/Users/cellis/opt/anaconda3/lib/python3.8/lib-dynload/select.cpython-38-darwin.so',
   'EXTENSION'),
  ('_socket',
   '/Users/cellis/opt/anaconda3/lib/python3.8/lib-dynload/_socket.cpython-38-darwin.so',
   'EXTENSION'),
  ('resource',
   '/Users/cellis/opt/anaconda3/lib/python3.8/lib-dynload/resource.cpython-38-darwin.so',
   'EXTENSION'),
  ('grp',
   '/Users/cellis/opt/anaconda3/lib/python3.8/lib-dynload/grp.cpython-38-darwin.so',
   'EXTENSION'),
  ('_lzma',
   '/Users/cellis/opt/anaconda3/lib/python3.8/lib-dynload/_lzma.cpython-38-darwin.so',
   'EXTENSION'),
  ('_bz2',
   '/Users/cellis/opt/anaconda3/lib/python3.8/lib-dynload/_bz2.cpython-38-darwin.so',
   'EXTENSION'),
  ('_datetime',
   '/Users/cellis/opt/anaconda3/lib/python3.8/lib-dynload/_datetime.cpython-38-darwin.so',
   'EXTENSION'),
  ('_ssl',
   '/Users/cellis/opt/anaconda3/lib/python3.8/lib-dynload/_ssl.cpython-38-darwin.so',
   'EXTENSION'),
  ('_asyncio',
   '/Users/cellis/opt/anaconda3/lib/python3.8/lib-dynload/_asyncio.cpython-38-darwin.so',
   'EXTENSION'),
  ('_contextvars',
   '/Users/cellis/opt/anaconda3/lib/python3.8/lib-dynload/_contextvars.cpython-38-darwin.so',
   'EXTENSION'),
  ('termios',
   '/Users/cellis/opt/anaconda3/lib/python3.8/lib-dynload/termios.cpython-38-darwin.so',
   'EXTENSION'),
  ('unicodedata',
   '/Users/cellis/opt/anaconda3/lib/python3.8/lib-dynload/unicodedata.cpython-38-darwin.so',
   'EXTENSION'),
  ('_csv',
   '/Users/cellis/opt/anaconda3/lib/python3.8/lib-dynload/_csv.cpython-38-darwin.so',
   'EXTENSION'),
  ('readline',
   '/Users/cellis/opt/anaconda3/lib/python3.8/lib-dynload/readline.cpython-38-darwin.so',
   'EXTENSION'),
  ('_opcode',
   '/Users/cellis/opt/anaconda3/lib/python3.8/lib-dynload/_opcode.cpython-38-darwin.so',
   'EXTENSION'),
  ('_pickle',
   '/Users/cellis/opt/anaconda3/lib/python3.8/lib-dynload/_pickle.cpython-38-darwin.so',
   'EXTENSION'),
  ('pyexpat',
   '/Users/cellis/opt/anaconda3/lib/python3.8/lib-dynload/pyexpat.cpython-38-darwin.so',
   'EXTENSION'),
  ('_scproxy',
   '/Users/cellis/opt/anaconda3/lib/python3.8/lib-dynload/_scproxy.cpython-38-darwin.so',
   'EXTENSION'),
  ('_decimal',
   '/Users/cellis/opt/anaconda3/lib/python3.8/lib-dynload/_decimal.cpython-38-darwin.so',
   'EXTENSION'),
  ('_testcapi',
   '/Users/cellis/opt/anaconda3/lib/python3.8/lib-dynload/_testcapi.cpython-38-darwin.so',
   'EXTENSION'),
  ('_tkinter',
   '/Users/cellis/opt/anaconda3/lib/python3.8/lib-dynload/_tkinter.cpython-38-darwin.so',
   'EXTENSION'),
  ('_elementtree',
   '/Users/cellis/opt/anaconda3/lib/python3.8/lib-dynload/_elementtree.cpython-38-darwin.so',
   'EXTENSION'),
  ('_posixsubprocess',
   '/Users/cellis/opt/anaconda3/lib/python3.8/lib-dynload/_posixsubprocess.cpython-38-darwin.so',
   'EXTENSION'),
  ('_uuid',
   '/Users/cellis/opt/anaconda3/lib/python3.8/lib-dynload/_uuid.cpython-38-darwin.so',
   'EXTENSION'),
  ('_multibytecodec',
   '/Users/cellis/opt/anaconda3/lib/python3.8/lib-dynload/_multibytecodec.cpython-38-darwin.so',
   'EXTENSION'),
  ('_codecs_kr',
   '/Users/cellis/opt/anaconda3/lib/python3.8/lib-dynload/_codecs_kr.cpython-38-darwin.so',
   'EXTENSION'),
  ('_codecs_jp',
   '/Users/cellis/opt/anaconda3/lib/python3.8/lib-dynload/_codecs_jp.cpython-38-darwin.so',
   'EXTENSION'),
  ('_codecs_tw',
   '/Users/cellis/opt/anaconda3/lib/python3.8/lib-dynload/_codecs_tw.cpython-38-darwin.so',
   'EXTENSION'),
  ('_codecs_cn',
   '/Users/cellis/opt/anaconda3/lib/python3.8/lib-dynload/_codecs_cn.cpython-38-darwin.so',
   'EXTENSION'),
  ('_codecs_iso2022',
   '/Users/cellis/opt/anaconda3/lib/python3.8/lib-dynload/_codecs_iso2022.cpython-38-darwin.so',
   'EXTENSION'),
  ('_codecs_hk',
   '/Users/cellis/opt/anaconda3/lib/python3.8/lib-dynload/_codecs_hk.cpython-38-darwin.so',
   'EXTENSION'),
  ('_heapq',
   '/Users/cellis/opt/anaconda3/lib/python3.8/lib-dynload/_heapq.cpython-38-darwin.so',
   'EXTENSION'),
  ('mkl._py_mkl_service',
   '/Users/cellis/opt/anaconda3/lib/python3.8/site-packages/mkl/_py_mkl_service.cpython-38-darwin.so',
   'EXTENSION'),
  ('mkl._mklinit',
   '/Users/cellis/opt/anaconda3/lib/python3.8/site-packages/mkl/_mklinit.cpython-38-darwin.so',
   'EXTENSION'),
  ('syslog',
   '/Users/cellis/opt/anaconda3/lib/python3.8/lib-dynload/syslog.cpython-38-darwin.so',
   'EXTENSION'),
  ('_json',
   '/Users/cellis/opt/anaconda3/lib/python3.8/lib-dynload/_json.cpython-38-darwin.so',
   'EXTENSION'),
  ('_curses',
   '/Users/cellis/opt/anaconda3/lib/python3.8/lib-dynload/_curses.cpython-38-darwin.so',
   'EXTENSION'),
  ('zope.interface._zope_interface_coptimizations',
   '/Users/cellis/opt/anaconda3/lib/python3.8/site-packages/zope/interface/_zope_interface_coptimizations.cpython-38-darwin.so',
   'EXTENSION'),
  ('PIL._imagingft',
   '/Users/cellis/opt/anaconda3/lib/python3.8/site-packages/PIL/_imagingft.cpython-38-darwin.so',
   'EXTENSION'),
  ('PIL._imagingtk',
   '/Users/cellis/opt/anaconda3/lib/python3.8/site-packages/PIL/_imagingtk.cpython-38-darwin.so',
   'EXTENSION'),
  ('_cffi_backend',
   '/Users/cellis/opt/anaconda3/lib/python3.8/site-packages/_cffi_backend.cpython-38-darwin.so',
   'EXTENSION'),
  ('PIL._imaging',
   '/Users/cellis/opt/anaconda3/lib/python3.8/site-packages/PIL/_imaging.cpython-38-darwin.so',
   'EXTENSION'),
  ('fcntl',
   '/Users/cellis/opt/anaconda3/lib/python3.8/lib-dynload/fcntl.cpython-38-darwin.so',
   'EXTENSION'),
  ('parser',
   '/Users/cellis/opt/anaconda3/lib/python3.8/lib-dynload/parser.cpython-38-darwin.so',
   'EXTENSION'),
  ('scipy._lib._fpumode',
   '/Users/cellis/opt/anaconda3/lib/python3.8/site-packages/scipy/_lib/_fpumode.cpython-38-darwin.so',
   'EXTENSION'),
  ('scipy._lib._ccallback_c',
   '/Users/cellis/opt/anaconda3/lib/python3.8/site-packages/scipy/_lib/_ccallback_c.cpython-38-darwin.so',
   'EXTENSION'),
  ('scipy._lib.messagestream',
   '/Users/cellis/opt/anaconda3/lib/python3.8/site-packages/scipy/_lib/messagestream.cpython-38-darwin.so',
   'EXTENSION'),
  ('scipy.fft._pocketfft.pypocketfft',
   '/Users/cellis/opt/anaconda3/lib/python3.8/site-packages/scipy/fft/_pocketfft/pypocketfft.cpython-38-darwin.so',
   'EXTENSION'),
  ('scipy._lib._uarray._uarray',
   '/Users/cellis/opt/anaconda3/lib/python3.8/site-packages/scipy/_lib/_uarray/_uarray.cpython-38-darwin.so',
   'EXTENSION'),
  ('psutil._psutil_osx',
   '/Users/cellis/opt/anaconda3/lib/python3.8/site-packages/psutil/_psutil_osx.cpython-38-darwin.so',
   'EXTENSION'),
  ('psutil._psutil_posix',
   '/Users/cellis/opt/anaconda3/lib/python3.8/site-packages/psutil/_psutil_posix.cpython-38-darwin.so',
   'EXTENSION'),
  ('numpy.core._multiarray_umath',
   '/Users/cellis/opt/anaconda3/lib/python3.8/site-packages/numpy/core/_multiarray_umath.cpython-38-darwin.so',
   'EXTENSION'),
  ('numpy.core._multiarray_tests',
   '/Users/cellis/opt/anaconda3/lib/python3.8/site-packages/numpy/core/_multiarray_tests.cpython-38-darwin.so',
   'EXTENSION'),
  ('numpy.random.mtrand',
   '/Users/cellis/opt/anaconda3/lib/python3.8/site-packages/numpy/random/mtrand.cpython-38-darwin.so',
   'EXTENSION'),
  ('numpy.random._sfc64',
   '/Users/cellis/opt/anaconda3/lib/python3.8/site-packages/numpy/random/_sfc64.cpython-38-darwin.so',
   'EXTENSION'),
  ('numpy.random._philox',
   '/Users/cellis/opt/anaconda3/lib/python3.8/site-packages/numpy/random/_philox.cpython-38-darwin.so',
   'EXTENSION'),
  ('numpy.random._pcg64',
   '/Users/cellis/opt/anaconda3/lib/python3.8/site-packages/numpy/random/_pcg64.cpython-38-darwin.so',
   'EXTENSION'),
  ('numpy.random._mt19937',
   '/Users/cellis/opt/anaconda3/lib/python3.8/site-packages/numpy/random/_mt19937.cpython-38-darwin.so',
   'EXTENSION'),
  ('numpy.random._bit_generator',
   '/Users/cellis/opt/anaconda3/lib/python3.8/site-packages/numpy/random/_bit_generator.cpython-38-darwin.so',
   'EXTENSION'),
  ('numpy.random._generator',
   '/Users/cellis/opt/anaconda3/lib/python3.8/site-packages/numpy/random/_generator.cpython-38-darwin.so',
   'EXTENSION'),
  ('numpy.random._bounded_integers',
   '/Users/cellis/opt/anaconda3/lib/python3.8/site-packages/numpy/random/_bounded_integers.cpython-38-darwin.so',
   'EXTENSION'),
  ('numpy.random._common',
   '/Users/cellis/opt/anaconda3/lib/python3.8/site-packages/numpy/random/_common.cpython-38-darwin.so',
   'EXTENSION'),
  ('numpy.fft._pocketfft_internal',
   '/Users/cellis/opt/anaconda3/lib/python3.8/site-packages/numpy/fft/_pocketfft_internal.cpython-38-darwin.so',
   'EXTENSION'),
  ('numpy.linalg._umath_linalg',
   '/Users/cellis/opt/anaconda3/lib/python3.8/site-packages/numpy/linalg/_umath_linalg.cpython-38-darwin.so',
   'EXTENSION'),
  ('numpy.linalg.lapack_lite',
   '/Users/cellis/opt/anaconda3/lib/python3.8/site-packages/numpy/linalg/lapack_lite.cpython-38-darwin.so',
   'EXTENSION'),
  ('libiomp5.dylib',
   '/Users/cellis/opt/anaconda3/lib/libiomp5.dylib',
   'BINARY'),
  ('libtbb.dylib', '/Users/cellis/opt/anaconda3/lib/libtbb.dylib', 'BINARY'),
  ('libffi.7.dylib',
   '/Users/cellis/opt/anaconda3/lib/libffi.7.dylib',
   'BINARY'),
  ('libcrypto.1.1.dylib',
   '/Users/cellis/opt/anaconda3/lib/libcrypto.1.1.dylib',
   'BINARY'),
  ('libz.1.dylib', '/Users/cellis/opt/anaconda3/lib/libz.1.dylib', 'BINARY'),
  ('liblzma.5.dylib',
   '/Users/cellis/opt/anaconda3/lib/liblzma.5.dylib',
   'BINARY'),
  ('libssl.1.1.dylib',
   '/Users/cellis/opt/anaconda3/lib/libssl.1.1.dylib',
   'BINARY'),
  ('libreadline.8.dylib',
   '/Users/cellis/opt/anaconda3/lib/libreadline.8.dylib',
   'BINARY'),
  ('libtk8.6.dylib',
   '/Users/cellis/opt/anaconda3/lib/libtk8.6.dylib',
   'BINARY'),
  ('libtcl8.6.dylib',
   '/Users/cellis/opt/anaconda3/lib/libtcl8.6.dylib',
   'BINARY'),
  ('libncursesw.6.dylib',
   '/Users/cellis/opt/anaconda3/lib/libncursesw.6.dylib',
   'BINARY'),
  ('libfreetype.6.dylib',
   '/Users/cellis/opt/anaconda3/lib/libfreetype.6.dylib',
   'BINARY'),
  ('libjpeg.9.dylib',
   '/Users/cellis/opt/anaconda3/lib/libjpeg.9.dylib',
   'BINARY'),
  ('libtiff.5.dylib',
   '/Users/cellis/opt/anaconda3/lib/libtiff.5.dylib',
   'BINARY'),
  ('libc++.1.dylib',
   '/Users/cellis/opt/anaconda3/lib/libc++.1.dylib',
   'BINARY'),
  ('libtinfow.6.dylib',
   '/Users/cellis/opt/anaconda3/lib/libtinfow.6.dylib',
   'BINARY'),
  ('libpng16.16.dylib',
   '/Users/cellis/opt/anaconda3/lib/libpng16.16.dylib',
   'BINARY'),
  ('libzstd.1.dylib',
   '/Users/cellis/opt/anaconda3/lib/libzstd.1.dylib',
   'BINARY'),
  ('libpython3.8.dylib',
   '/Users/cellis/opt/anaconda3/lib/libpython3.8.dylib',
   'BINARY'),
  ('base_library.zip',
   '/Users/cellis/Nextcloud/Scripts/chocCutter/build/chocCutter/base_library.zip',
   'DATA'),
  ('tcl/encoding/iso8859-3.enc',
   '/Users/cellis/opt/anaconda3/lib/tcl8.6/encoding/iso8859-3.enc',
   'DATA'),
  ('tk/console.tcl',
   '/Users/cellis/opt/anaconda3/lib/tk8.6/console.tcl',
   'DATA'),
  ('tk/scale.tcl', '/Users/cellis/opt/anaconda3/lib/tk8.6/scale.tcl', 'DATA'),
  ('tcl/encoding/iso8859-6.enc',
   '/Users/cellis/opt/anaconda3/lib/tcl8.6/encoding/iso8859-6.enc',
   'DATA'),
  ('tcl/encoding/macGreek.enc',
   '/Users/cellis/opt/anaconda3/lib/tcl8.6/encoding/macGreek.enc',
   'DATA'),
  ('tcl/encoding/macJapan.enc',
   '/Users/cellis/opt/anaconda3/lib/tcl8.6/encoding/macJapan.enc',
   'DATA'),
  ('importlib_metadata-1.7.0-py3.8.egg-info/METADATA',
   '/Users/cellis/opt/anaconda3/lib/python3.8/site-packages/importlib_metadata-1.7.0.dist-info/METADATA',
   'DATA'),
  ('tcl/encoding/iso8859-8.enc',
   '/Users/cellis/opt/anaconda3/lib/tcl8.6/encoding/iso8859-8.enc',
   'DATA'),
  ('tcl/encoding/macThai.enc',
   '/Users/cellis/opt/anaconda3/lib/tcl8.6/encoding/macThai.enc',
   'DATA'),
  ('tk/images/pwrdLogo100.gif',
   '/Users/cellis/opt/anaconda3/lib/tk8.6/images/pwrdLogo100.gif',
   'DATA'),
  ('tcl/encoding/iso8859-7.enc',
   '/Users/cellis/opt/anaconda3/lib/tcl8.6/encoding/iso8859-7.enc',
   'DATA'),
  ('tcl/msgs/es_ar.msg',
   '/Users/cellis/opt/anaconda3/lib/tcl8.6/msgs/es_ar.msg',
   'DATA'),
  ('tcl/msgs/sk.msg',
   '/Users/cellis/opt/anaconda3/lib/tcl8.6/msgs/sk.msg',
   'DATA'),
  ('tcl/msgs/es_uy.msg',
   '/Users/cellis/opt/anaconda3/lib/tcl8.6/msgs/es_uy.msg',
   'DATA'),
  ('tk/ttk/classicTheme.tcl',
   '/Users/cellis/opt/anaconda3/lib/tk8.6/ttk/classicTheme.tcl',
   'DATA'),
  ('tcl/msgs/gv.msg',
   '/Users/cellis/opt/anaconda3/lib/tcl8.6/msgs/gv.msg',
   'DATA'),
  ('tcl/clock.tcl', '/Users/cellis/opt/anaconda3/lib/tcl8.6/clock.tcl', 'DATA'),
  ('tcl/encoding/macRomania.enc',
   '/Users/cellis/opt/anaconda3/lib/tcl8.6/encoding/macRomania.enc',
   'DATA'),
  ('tk/images/pwrdLogo200.gif',
   '/Users/cellis/opt/anaconda3/lib/tk8.6/images/pwrdLogo200.gif',
   'DATA'),
  ('tcl/msgs/ga_ie.msg',
   '/Users/cellis/opt/anaconda3/lib/tcl8.6/msgs/ga_ie.msg',
   'DATA'),
  ('tk/ttk/defaults.tcl',
   '/Users/cellis/opt/anaconda3/lib/tk8.6/ttk/defaults.tcl',
   'DATA'),
  ('tk/ttk/entry.tcl',
   '/Users/cellis/opt/anaconda3/lib/tk8.6/ttk/entry.tcl',
   'DATA'),
  ('tcl/encoding/gb1988.enc',
   '/Users/cellis/opt/anaconda3/lib/tcl8.6/encoding/gb1988.enc',
   'DATA'),
  ('tcl/msgs/ko.msg',
   '/Users/cellis/opt/anaconda3/lib/tcl8.6/msgs/ko.msg',
   'DATA'),
  ('tcl/msgs/pt_br.msg',
   '/Users/cellis/opt/anaconda3/lib/tcl8.6/msgs/pt_br.msg',
   'DATA'),
  ('tcl/msgs/en_au.msg',
   '/Users/cellis/opt/anaconda3/lib/tcl8.6/msgs/en_au.msg',
   'DATA'),
  ('tcl/encoding/macDingbats.enc',
   '/Users/cellis/opt/anaconda3/lib/tcl8.6/encoding/macDingbats.enc',
   'DATA'),
  ('tcl/encoding/macCroatian.enc',
   '/Users/cellis/opt/anaconda3/lib/tcl8.6/encoding/macCroatian.enc',
   'DATA'),
  ('tcl/encoding/ksc5601.enc',
   '/Users/cellis/opt/anaconda3/lib/tcl8.6/encoding/ksc5601.enc',
   'DATA'),
  ('tcl/msgs/en_bw.msg',
   '/Users/cellis/opt/anaconda3/lib/tcl8.6/msgs/en_bw.msg',
   'DATA'),
  ('tcl/encoding/euc-cn.enc',
   '/Users/cellis/opt/anaconda3/lib/tcl8.6/encoding/euc-cn.enc',
   'DATA'),
  ('tcl/msgs/es_pa.msg',
   '/Users/cellis/opt/anaconda3/lib/tcl8.6/msgs/es_pa.msg',
   'DATA'),
  ('tcl/encoding/shiftjis.enc',
   '/Users/cellis/opt/anaconda3/lib/tcl8.6/encoding/shiftjis.enc',
   'DATA'),
  ('tcl/msgs/fr_ch.msg',
   '/Users/cellis/opt/anaconda3/lib/tcl8.6/msgs/fr_ch.msg',
   'DATA'),
  ('include/python3.8/pyconfig.h',
   '/Users/cellis/opt/anaconda3/include/python3.8/pyconfig.h',
   'DATA'),
  ('tcl/msgs/zh_cn.msg',
   '/Users/cellis/opt/anaconda3/lib/tcl8.6/msgs/zh_cn.msg',
   'DATA'),
  ('tcl/msgs/en_za.msg',
   '/Users/cellis/opt/anaconda3/lib/tcl8.6/msgs/en_za.msg',
   'DATA'),
  ('tcl/encoding/macCyrillic.enc',
   '/Users/cellis/opt/anaconda3/lib/tcl8.6/encoding/macCyrillic.enc',
   'DATA'),
  ('tcl/msgs/da.msg',
   '/Users/cellis/opt/anaconda3/lib/tcl8.6/msgs/da.msg',
   'DATA'),
  ('tcl/history.tcl',
   '/Users/cellis/opt/anaconda3/lib/tcl8.6/history.tcl',
   'DATA'),
  ('tcl/msgs/de.msg',
   '/Users/cellis/opt/anaconda3/lib/tcl8.6/msgs/de.msg',
   'DATA'),
  ('tcl/safe.tcl', '/Users/cellis/opt/anaconda3/lib/tcl8.6/safe.tcl', 'DATA'),
  ('tcl/msgs/es_cl.msg',
   '/Users/cellis/opt/anaconda3/lib/tcl8.6/msgs/es_cl.msg',
   'DATA'),
  ('tcl/encoding/macRoman.enc',
   '/Users/cellis/opt/anaconda3/lib/tcl8.6/encoding/macRoman.enc',
   'DATA'),
  ('tcl/msgs/ar.msg',
   '/Users/cellis/opt/anaconda3/lib/tcl8.6/msgs/ar.msg',
   'DATA'),
  ('tcl/encoding/cp932.enc',
   '/Users/cellis/opt/anaconda3/lib/tcl8.6/encoding/cp932.enc',
   'DATA'),
  ('tcl/msgs/zh_sg.msg',
   '/Users/cellis/opt/anaconda3/lib/tcl8.6/msgs/zh_sg.msg',
   'DATA'),
  ('tcl/msgs/it_ch.msg',
   '/Users/cellis/opt/anaconda3/lib/tcl8.6/msgs/it_ch.msg',
   'DATA'),
  ('tcl/encoding/iso8859-5.enc',
   '/Users/cellis/opt/anaconda3/lib/tcl8.6/encoding/iso8859-5.enc',
   'DATA'),
  ('tcl/msgs/ru.msg',
   '/Users/cellis/opt/anaconda3/lib/tcl8.6/msgs/ru.msg',
   'DATA'),
  ('tcl/msgs/en_sg.msg',
   '/Users/cellis/opt/anaconda3/lib/tcl8.6/msgs/en_sg.msg',
   'DATA'),
  ('tcl/msgs/sr.msg',
   '/Users/cellis/opt/anaconda3/lib/tcl8.6/msgs/sr.msg',
   'DATA'),
  ('tk/images/pwrdLogo75.gif',
   '/Users/cellis/opt/anaconda3/lib/tk8.6/images/pwrdLogo75.gif',
   'DATA'),
  ('tk/obsolete.tcl',
   '/Users/cellis/opt/anaconda3/lib/tk8.6/obsolete.tcl',
   'DATA'),
  ('tk/images/logo.eps',
   '/Users/cellis/opt/anaconda3/lib/tk8.6/images/logo.eps',
   'DATA'),
  ('tcl/msgs/es_cr.msg',
   '/Users/cellis/opt/anaconda3/lib/tcl8.6/msgs/es_cr.msg',
   'DATA'),
  ('tcl/msgs/be.msg',
   '/Users/cellis/opt/anaconda3/lib/tcl8.6/msgs/be.msg',
   'DATA'),
  ('tk/msgs/sv.msg',
   '/Users/cellis/opt/anaconda3/lib/tk8.6/msgs/sv.msg',
   'DATA'),
  ('tcl/word.tcl', '/Users/cellis/opt/anaconda3/lib/tcl8.6/word.tcl', 'DATA'),
  ('tcl/msgs/sh.msg',
   '/Users/cellis/opt/anaconda3/lib/tcl8.6/msgs/sh.msg',
   'DATA'),
  ('lib2to3/Grammar3.8.3.final.0.pickle',
   '/Users/cellis/opt/anaconda3/lib/python3.8/lib2to3/Grammar3.8.3.final.0.pickle',
   'DATA'),
  ('tcl/msgs/et.msg',
   '/Users/cellis/opt/anaconda3/lib/tcl8.6/msgs/et.msg',
   'DATA'),
  ('tcl/encoding/dingbats.enc',
   '/Users/cellis/opt/anaconda3/lib/tcl8.6/encoding/dingbats.enc',
   'DATA'),
  ('tk/msgs/fr.msg',
   '/Users/cellis/opt/anaconda3/lib/tk8.6/msgs/fr.msg',
   'DATA'),
  ('tcl/msgs/gl.msg',
   '/Users/cellis/opt/anaconda3/lib/tcl8.6/msgs/gl.msg',
   'DATA'),
  ('tcl/msgs/fa.msg',
   '/Users/cellis/opt/anaconda3/lib/tcl8.6/msgs/fa.msg',
   'DATA'),
  ('tk/pkgIndex.tcl',
   '/Users/cellis/opt/anaconda3/lib/tk8.6/pkgIndex.tcl',
   'DATA'),
  ('tcl/msgs/es_py.msg',
   '/Users/cellis/opt/anaconda3/lib/tcl8.6/msgs/es_py.msg',
   'DATA'),
  ('tcl/encoding/cp949.enc',
   '/Users/cellis/opt/anaconda3/lib/tcl8.6/encoding/cp949.enc',
   'DATA'),
  ('tcl/encoding/cp775.enc',
   '/Users/cellis/opt/anaconda3/lib/tcl8.6/encoding/cp775.enc',
   'DATA'),
  ('tk/ttk/scrollbar.tcl',
   '/Users/cellis/opt/anaconda3/lib/tk8.6/ttk/scrollbar.tcl',
   'DATA'),
  ('tk/ttk/altTheme.tcl',
   '/Users/cellis/opt/anaconda3/lib/tk8.6/ttk/altTheme.tcl',
   'DATA'),
  ('tcl/encoding/gb2312-raw.enc',
   '/Users/cellis/opt/anaconda3/lib/tcl8.6/encoding/gb2312-raw.enc',
   'DATA'),
  ('tcl/encoding/symbol.enc',
   '/Users/cellis/opt/anaconda3/lib/tcl8.6/encoding/symbol.enc',
   'DATA'),
  ('tk/msgs/pl.msg',
   '/Users/cellis/opt/anaconda3/lib/tk8.6/msgs/pl.msg',
   'DATA'),
  ('tk/msgs/es.msg',
   '/Users/cellis/opt/anaconda3/lib/tk8.6/msgs/es.msg',
   'DATA'),
  ('tcl/encoding/jis0212.enc',
   '/Users/cellis/opt/anaconda3/lib/tcl8.6/encoding/jis0212.enc',
   'DATA'),
  ('importlib_metadata-1.7.0-py3.8.egg-info/top_level.txt',
   '/Users/cellis/opt/anaconda3/lib/python3.8/site-packages/importlib_metadata-1.7.0.dist-info/top_level.txt',
   'DATA'),
  ('tcl/msgs/gl_es.msg',
   '/Users/cellis/opt/anaconda3/lib/tcl8.6/msgs/gl_es.msg',
   'DATA'),
  ('tcl/msgs/en_hk.msg',
   '/Users/cellis/opt/anaconda3/lib/tcl8.6/msgs/en_hk.msg',
   'DATA'),
  ('tcl/msgs/en_ie.msg',
   '/Users/cellis/opt/anaconda3/lib/tcl8.6/msgs/en_ie.msg',
   'DATA'),
  ('tk/ttk/progress.tcl',
   '/Users/cellis/opt/anaconda3/lib/tk8.6/ttk/progress.tcl',
   'DATA'),
  ('tcl/msgs/eo.msg',
   '/Users/cellis/opt/anaconda3/lib/tcl8.6/msgs/eo.msg',
   'DATA'),
  ('tk/palette.tcl',
   '/Users/cellis/opt/anaconda3/lib/tk8.6/palette.tcl',
   'DATA'),
  ('tcl/encoding/cp1255.enc',
   '/Users/cellis/opt/anaconda3/lib/tcl8.6/encoding/cp1255.enc',
   'DATA'),
  ('tcl/msgs/es_gt.msg',
   '/Users/cellis/opt/anaconda3/lib/tcl8.6/msgs/es_gt.msg',
   'DATA'),
  ('tcl/msgs/is.msg',
   '/Users/cellis/opt/anaconda3/lib/tcl8.6/msgs/is.msg',
   'DATA'),
  ('tcl/msgs/gv_gb.msg',
   '/Users/cellis/opt/anaconda3/lib/tcl8.6/msgs/gv_gb.msg',
   'DATA'),
  ('tcl/msgs/af.msg',
   '/Users/cellis/opt/anaconda3/lib/tcl8.6/msgs/af.msg',
   'DATA'),
  ('tk/images/tai-ku.gif',
   '/Users/cellis/opt/anaconda3/lib/tk8.6/images/tai-ku.gif',
   'DATA'),
  ('tcl/msgs/fa_ir.msg',
   '/Users/cellis/opt/anaconda3/lib/tcl8.6/msgs/fa_ir.msg',
   'DATA'),
  ('tcl/encoding/koi8-r.enc',
   '/Users/cellis/opt/anaconda3/lib/tcl8.6/encoding/koi8-r.enc',
   'DATA'),
  ('tk/msgs/hu.msg',
   '/Users/cellis/opt/anaconda3/lib/tk8.6/msgs/hu.msg',
   'DATA'),
  ('tk/xmfbox.tcl', '/Users/cellis/opt/anaconda3/lib/tk8.6/xmfbox.tcl', 'DATA'),
  ('tcl/encoding/cp860.enc',
   '/Users/cellis/opt/anaconda3/lib/tcl8.6/encoding/cp860.enc',
   'DATA'),
  ('tcl/opt0.4/pkgIndex.tcl',
   '/Users/cellis/opt/anaconda3/lib/tcl8.6/opt0.4/pkgIndex.tcl',
   'DATA'),
  ('tcl/encoding/tis-620.enc',
   '/Users/cellis/opt/anaconda3/lib/tcl8.6/encoding/tis-620.enc',
   'DATA'),
  ('tcl/msgs/ar_lb.msg',
   '/Users/cellis/opt/anaconda3/lib/tcl8.6/msgs/ar_lb.msg',
   'DATA'),
  ('tk/ttk/menubutton.tcl',
   '/Users/cellis/opt/anaconda3/lib/tk8.6/ttk/menubutton.tcl',
   'DATA'),
  ('tk/images/logoMed.gif',
   '/Users/cellis/opt/anaconda3/lib/tk8.6/images/logoMed.gif',
   'DATA'),
  ('tcl/encoding/koi8-u.enc',
   '/Users/cellis/opt/anaconda3/lib/tcl8.6/encoding/koi8-u.enc',
   'DATA'),
  ('tk/optMenu.tcl',
   '/Users/cellis/opt/anaconda3/lib/tk8.6/optMenu.tcl',
   'DATA'),
  ('tk/clrpick.tcl',
   '/Users/cellis/opt/anaconda3/lib/tk8.6/clrpick.tcl',
   'DATA'),
  ('tcl/encoding/jis0208.enc',
   '/Users/cellis/opt/anaconda3/lib/tcl8.6/encoding/jis0208.enc',
   'DATA'),
  ('tcl/msgs/vi.msg',
   '/Users/cellis/opt/anaconda3/lib/tcl8.6/msgs/vi.msg',
   'DATA'),
  ('tcl/encoding/iso8859-2.enc',
   '/Users/cellis/opt/anaconda3/lib/tcl8.6/encoding/iso8859-2.enc',
   'DATA'),
  ('tcl/encoding/cp1258.enc',
   '/Users/cellis/opt/anaconda3/lib/tcl8.6/encoding/cp1258.enc',
   'DATA'),
  ('tcl/encoding/cp855.enc',
   '/Users/cellis/opt/anaconda3/lib/tcl8.6/encoding/cp855.enc',
   'DATA'),
  ('tcl/msgs/hu.msg',
   '/Users/cellis/opt/anaconda3/lib/tcl8.6/msgs/hu.msg',
   'DATA'),
  ('tcl/msgs/es_ve.msg',
   '/Users/cellis/opt/anaconda3/lib/tcl8.6/msgs/es_ve.msg',
   'DATA'),
  ('tk/images/logo64.gif',
   '/Users/cellis/opt/anaconda3/lib/tk8.6/images/logo64.gif',
   'DATA'),
  ('tk/msgs/it.msg',
   '/Users/cellis/opt/anaconda3/lib/tk8.6/msgs/it.msg',
   'DATA'),
  ('tk/megawidget.tcl',
   '/Users/cellis/opt/anaconda3/lib/tk8.6/megawidget.tcl',
   'DATA'),
  ('tcl/msgs/fr_ca.msg',
   '/Users/cellis/opt/anaconda3/lib/tcl8.6/msgs/fr_ca.msg',
   'DATA'),
  ('tcl/encoding/cp936.enc',
   '/Users/cellis/opt/anaconda3/lib/tcl8.6/encoding/cp936.enc',
   'DATA'),
  ('tcl/msgs/en_gb.msg',
   '/Users/cellis/opt/anaconda3/lib/tcl8.6/msgs/en_gb.msg',
   'DATA'),
  ('tcl/msgs/ta_in.msg',
   '/Users/cellis/opt/anaconda3/lib/tcl8.6/msgs/ta_in.msg',
   'DATA'),
  ('tcl/encoding/macUkraine.enc',
   '/Users/cellis/opt/anaconda3/lib/tcl8.6/encoding/macUkraine.enc',
   'DATA'),
  ('tcl/encoding/cp1250.enc',
   '/Users/cellis/opt/anaconda3/lib/tcl8.6/encoding/cp1250.enc',
   'DATA'),
  ('tcl/msgs/lv.msg',
   '/Users/cellis/opt/anaconda3/lib/tcl8.6/msgs/lv.msg',
   'DATA'),
  ('tcl/msgs/kl.msg',
   '/Users/cellis/opt/anaconda3/lib/tcl8.6/msgs/kl.msg',
   'DATA'),
  ('tcl/msgs/es_hn.msg',
   '/Users/cellis/opt/anaconda3/lib/tcl8.6/msgs/es_hn.msg',
   'DATA'),
  ('tcl/encoding/cp865.enc',
   '/Users/cellis/opt/anaconda3/lib/tcl8.6/encoding/cp865.enc',
   'DATA'),
  ('tcl/http1.0/http.tcl',
   '/Users/cellis/opt/anaconda3/lib/tcl8.6/http1.0/http.tcl',
   'DATA'),
  ('tcl/encoding/cp862.enc',
   '/Users/cellis/opt/anaconda3/lib/tcl8.6/encoding/cp862.enc',
   'DATA'),
  ('tcl/msgs/fi.msg',
   '/Users/cellis/opt/anaconda3/lib/tcl8.6/msgs/fi.msg',
   'DATA'),
  ('tk/scrlbar.tcl',
   '/Users/cellis/opt/anaconda3/lib/tk8.6/scrlbar.tcl',
   'DATA'),
  ('tcl/encoding/gb2312.enc',
   '/Users/cellis/opt/anaconda3/lib/tcl8.6/encoding/gb2312.enc',
   'DATA'),
  ('tcl/encoding/euc-kr.enc',
   '/Users/cellis/opt/anaconda3/lib/tcl8.6/encoding/euc-kr.enc',
   'DATA'),
  ('tcl/encoding/cp850.enc',
   '/Users/cellis/opt/anaconda3/lib/tcl8.6/encoding/cp850.enc',
   'DATA'),
  ('tcl/msgs/de_be.msg',
   '/Users/cellis/opt/anaconda3/lib/tcl8.6/msgs/de_be.msg',
   'DATA'),
  ('tcl/encoding/jis0201.enc',
   '/Users/cellis/opt/anaconda3/lib/tcl8.6/encoding/jis0201.enc',
   'DATA'),
  ('tk/images/logo100.gif',
   '/Users/cellis/opt/anaconda3/lib/tk8.6/images/logo100.gif',
   'DATA'),
  ('tk/ttk/scale.tcl',
   '/Users/cellis/opt/anaconda3/lib/tk8.6/ttk/scale.tcl',
   'DATA'),
  ('tk/images/logoLarge.gif',
   '/Users/cellis/opt/anaconda3/lib/tk8.6/images/logoLarge.gif',
   'DATA'),
  ('tcl/msgs/zh_tw.msg',
   '/Users/cellis/opt/anaconda3/lib/tcl8.6/msgs/zh_tw.msg',
   'DATA'),
  ('tcl/msgs/ms_my.msg',
   '/Users/cellis/opt/anaconda3/lib/tcl8.6/msgs/ms_my.msg',
   'DATA'),
  ('tk/msgs/en_gb.msg',
   '/Users/cellis/opt/anaconda3/lib/tk8.6/msgs/en_gb.msg',
   'DATA'),
  ('tk/ttk/sizegrip.tcl',
   '/Users/cellis/opt/anaconda3/lib/tk8.6/ttk/sizegrip.tcl',
   'DATA'),
  ('tk/unsupported.tcl',
   '/Users/cellis/opt/anaconda3/lib/tk8.6/unsupported.tcl',
   'DATA'),
  ('lib2to3/tests/data/README',
   '/Users/cellis/opt/anaconda3/lib/python3.8/lib2to3/tests/data/README',
   'DATA'),
  ('tcl/encoding/cp864.enc',
   '/Users/cellis/opt/anaconda3/lib/tcl8.6/encoding/cp864.enc',
   'DATA'),
  ('tk/msgs/en.msg',
   '/Users/cellis/opt/anaconda3/lib/tk8.6/msgs/en.msg',
   'DATA'),
  ('tk/dialog.tcl', '/Users/cellis/opt/anaconda3/lib/tk8.6/dialog.tcl', 'DATA'),
  ('tcl/msgs/nl_be.msg',
   '/Users/cellis/opt/anaconda3/lib/tcl8.6/msgs/nl_be.msg',
   'DATA'),
  ('tk/msgs/de.msg',
   '/Users/cellis/opt/anaconda3/lib/tk8.6/msgs/de.msg',
   'DATA'),
  ('tcl/msgs/ga.msg',
   '/Users/cellis/opt/anaconda3/lib/tcl8.6/msgs/ga.msg',
   'DATA'),
  ('tk/images/pwrdLogo175.gif',
   '/Users/cellis/opt/anaconda3/lib/tk8.6/images/pwrdLogo175.gif',
   'DATA'),
  ('tcl/msgs/es_sv.msg',
   '/Users/cellis/opt/anaconda3/lib/tcl8.6/msgs/es_sv.msg',
   'DATA'),
  ('tcl/msgs/fo_fo.msg',
   '/Users/cellis/opt/anaconda3/lib/tcl8.6/msgs/fo_fo.msg',
   'DATA'),
  ('tcl/msgs/it.msg',
   '/Users/cellis/opt/anaconda3/lib/tcl8.6/msgs/it.msg',
   'DATA'),
  ('tk/icons.tcl', '/Users/cellis/opt/anaconda3/lib/tk8.6/icons.tcl', 'DATA'),
  ('tk/tearoff.tcl',
   '/Users/cellis/opt/anaconda3/lib/tk8.6/tearoff.tcl',
   'DATA'),
  ('tcl/encoding/cp861.enc',
   '/Users/cellis/opt/anaconda3/lib/tcl8.6/encoding/cp861.enc',
   'DATA'),
  ('tcl/encoding/gb12345.enc',
   '/Users/cellis/opt/anaconda3/lib/tcl8.6/encoding/gb12345.enc',
   'DATA'),
  ('importlib_metadata-1.7.0-py3.8.egg-info/LICENSE',
   '/Users/cellis/opt/anaconda3/lib/python3.8/site-packages/importlib_metadata-1.7.0.dist-info/LICENSE',
   'DATA'),
  ('tcl/msgs/sq.msg',
   '/Users/cellis/opt/anaconda3/lib/tcl8.6/msgs/sq.msg',
   'DATA'),
  ('tcl/msgs/tr.msg',
   '/Users/cellis/opt/anaconda3/lib/tcl8.6/msgs/tr.msg',
   'DATA'),
  ('tcl/parray.tcl',
   '/Users/cellis/opt/anaconda3/lib/tcl8.6/parray.tcl',
   'DATA'),
  ('importlib_metadata-1.7.0-py3.8.egg-info/WHEEL',
   '/Users/cellis/opt/anaconda3/lib/python3.8/site-packages/importlib_metadata-1.7.0.dist-info/WHEEL',
   'DATA'),
  ('tcl/msgs/he.msg',
   '/Users/cellis/opt/anaconda3/lib/tcl8.6/msgs/he.msg',
   'DATA'),
  ('tcl/msgs/ja.msg',
   '/Users/cellis/opt/anaconda3/lib/tcl8.6/msgs/ja.msg',
   'DATA'),
  ('tcl/encoding/macCentEuro.enc',
   '/Users/cellis/opt/anaconda3/lib/tcl8.6/encoding/macCentEuro.enc',
   'DATA'),
  ('tk/choosedir.tcl',
   '/Users/cellis/opt/anaconda3/lib/tk8.6/choosedir.tcl',
   'DATA'),
  ('tk/panedwindow.tcl',
   '/Users/cellis/opt/anaconda3/lib/tk8.6/panedwindow.tcl',
   'DATA'),
  ('tcl/msgs/cs.msg',
   '/Users/cellis/opt/anaconda3/lib/tcl8.6/msgs/cs.msg',
   'DATA'),
  ('tcl/msgs/el.msg',
   '/Users/cellis/opt/anaconda3/lib/tcl8.6/msgs/el.msg',
   'DATA'),
  ('tcl/msgs/fa_in.msg',
   '/Users/cellis/opt/anaconda3/lib/tcl8.6/msgs/fa_in.msg',
   'DATA'),
  ('tk/ttk/aquaTheme.tcl',
   '/Users/cellis/opt/anaconda3/lib/tk8.6/ttk/aquaTheme.tcl',
   'DATA'),
  ('tcl/msgs/ro.msg',
   '/Users/cellis/opt/anaconda3/lib/tcl8.6/msgs/ro.msg',
   'DATA'),
  ('tcl/msgs/bn.msg',
   '/Users/cellis/opt/anaconda3/lib/tcl8.6/msgs/bn.msg',
   'DATA'),
  ('tcl/encoding/iso8859-9.enc',
   '/Users/cellis/opt/anaconda3/lib/tcl8.6/encoding/iso8859-9.enc',
   'DATA'),
  ('tk/tkfbox.tcl', '/Users/cellis/opt/anaconda3/lib/tk8.6/tkfbox.tcl', 'DATA'),
  ('tcl/encoding/ebcdic.enc',
   '/Users/cellis/opt/anaconda3/lib/tcl8.6/encoding/ebcdic.enc',
   'DATA'),
  ('tk/focus.tcl', '/Users/cellis/opt/anaconda3/lib/tk8.6/focus.tcl', 'DATA'),
  ('tcl/msgs/en_ca.msg',
   '/Users/cellis/opt/anaconda3/lib/tcl8.6/msgs/en_ca.msg',
   'DATA'),
  ('tcl/encoding/euc-jp.enc',
   '/Users/cellis/opt/anaconda3/lib/tcl8.6/encoding/euc-jp.enc',
   'DATA'),
  ('tk/ttk/spinbox.tcl',
   '/Users/cellis/opt/anaconda3/lib/tk8.6/ttk/spinbox.tcl',
   'DATA'),
  ('tcl/msgs/mr_in.msg',
   '/Users/cellis/opt/anaconda3/lib/tcl8.6/msgs/mr_in.msg',
   'DATA'),
  ('tcl/msgs/sw.msg',
   '/Users/cellis/opt/anaconda3/lib/tcl8.6/msgs/sw.msg',
   'DATA'),
  ('tcl/encoding/cp869.enc',
   '/Users/cellis/opt/anaconda3/lib/tcl8.6/encoding/cp869.enc',
   'DATA'),
  ('tcl/msgs/te.msg',
   '/Users/cellis/opt/anaconda3/lib/tcl8.6/msgs/te.msg',
   'DATA'),
  ('tcl/msgs/pt.msg',
   '/Users/cellis/opt/anaconda3/lib/tcl8.6/msgs/pt.msg',
   'DATA'),
  ('tk/safetk.tcl', '/Users/cellis/opt/anaconda3/lib/tk8.6/safetk.tcl', 'DATA'),
  ('tk/msgbox.tcl', '/Users/cellis/opt/anaconda3/lib/tk8.6/msgbox.tcl', 'DATA'),
  ('tk/comdlg.tcl', '/Users/cellis/opt/anaconda3/lib/tk8.6/comdlg.tcl', 'DATA'),
  ('tcl/msgs/de_at.msg',
   '/Users/cellis/opt/anaconda3/lib/tcl8.6/msgs/de_at.msg',
   'DATA'),
  ('tcl/encoding/iso8859-14.enc',
   '/Users/cellis/opt/anaconda3/lib/tcl8.6/encoding/iso8859-14.enc',
   'DATA'),
  ('tcl/msgs/sv.msg',
   '/Users/cellis/opt/anaconda3/lib/tcl8.6/msgs/sv.msg',
   'DATA'),
  ('tcl/encoding/cp863.enc',
   '/Users/cellis/opt/anaconda3/lib/tcl8.6/encoding/cp863.enc',
   'DATA'),
  ('tcl/msgs/ca.msg',
   '/Users/cellis/opt/anaconda3/lib/tcl8.6/msgs/ca.msg',
   'DATA'),
  ('tk/msgs/pt.msg',
   '/Users/cellis/opt/anaconda3/lib/tk8.6/msgs/pt.msg',
   'DATA'),
  ('tcl/msgs/pl.msg',
   '/Users/cellis/opt/anaconda3/lib/tcl8.6/msgs/pl.msg',
   'DATA'),
  ('tcl/msgs/bn_in.msg',
   '/Users/cellis/opt/anaconda3/lib/tcl8.6/msgs/bn_in.msg',
   'DATA'),
  ('tk/fontchooser.tcl',
   '/Users/cellis/opt/anaconda3/lib/tk8.6/fontchooser.tcl',
   'DATA'),
  ('tk/listbox.tcl',
   '/Users/cellis/opt/anaconda3/lib/tk8.6/listbox.tcl',
   'DATA'),
  ('tk/ttk/panedwindow.tcl',
   '/Users/cellis/opt/anaconda3/lib/tk8.6/ttk/panedwindow.tcl',
   'DATA'),
  ('tcl/encoding/cp1251.enc',
   '/Users/cellis/opt/anaconda3/lib/tcl8.6/encoding/cp1251.enc',
   'DATA'),
  ('tcl/msgs/te_in.msg',
   '/Users/cellis/opt/anaconda3/lib/tcl8.6/msgs/te_in.msg',
   'DATA'),
  ('tk/msgs/ru.msg',
   '/Users/cellis/opt/anaconda3/lib/tk8.6/msgs/ru.msg',
   'DATA'),
  ('tcl/msgs/zh_hk.msg',
   '/Users/cellis/opt/anaconda3/lib/tcl8.6/msgs/zh_hk.msg',
   'DATA'),
  ('tk/ttk/button.tcl',
   '/Users/cellis/opt/anaconda3/lib/tk8.6/ttk/button.tcl',
   'DATA'),
  ('tk/ttk/utils.tcl',
   '/Users/cellis/opt/anaconda3/lib/tk8.6/ttk/utils.tcl',
   'DATA'),
  ('tk/msgs/nl.msg',
   '/Users/cellis/opt/anaconda3/lib/tk8.6/msgs/nl.msg',
   'DATA'),
  ('tcl/msgs/fo.msg',
   '/Users/cellis/opt/anaconda3/lib/tcl8.6/msgs/fo.msg',
   'DATA'),
  ('tk/ttk/clamTheme.tcl',
   '/Users/cellis/opt/anaconda3/lib/tk8.6/ttk/clamTheme.tcl',
   'DATA'),
  ('tcl/encoding/cp437.enc',
   '/Users/cellis/opt/anaconda3/lib/tcl8.6/encoding/cp437.enc',
   'DATA'),
  ('tk/button.tcl', '/Users/cellis/opt/anaconda3/lib/tk8.6/button.tcl', 'DATA'),
  ('tcl/msgs/kok_in.msg',
   '/Users/cellis/opt/anaconda3/lib/tcl8.6/msgs/kok_in.msg',
   'DATA'),
  ('tk/entry.tcl', '/Users/cellis/opt/anaconda3/lib/tk8.6/entry.tcl', 'DATA'),
  ('lib2to3/Grammar.txt',
   '/Users/cellis/opt/anaconda3/lib/python3.8/lib2to3/Grammar.txt',
   'DATA'),
  ('lib2to3/PatternGrammar3.8.3.final.0.pickle',
   '/Users/cellis/opt/anaconda3/lib/python3.8/lib2to3/PatternGrammar3.8.3.final.0.pickle',
   'DATA'),
  ('tcl/msgs/nn.msg',
   '/Users/cellis/opt/anaconda3/lib/tcl8.6/msgs/nn.msg',
   'DATA'),
  ('tcl/msgs/af_za.msg',
   '/Users/cellis/opt/anaconda3/lib/tcl8.6/msgs/af_za.msg',
   'DATA'),
  ('tcl/encoding/cp1254.enc',
   '/Users/cellis/opt/anaconda3/lib/tcl8.6/encoding/cp1254.enc',
   'DATA'),
  ('tcl/encoding/cp874.enc',
   '/Users/cellis/opt/anaconda3/lib/tcl8.6/encoding/cp874.enc',
   'DATA'),
  ('lib/python3.8/config-3.8-darwin/Makefile',
   '/Users/cellis/opt/anaconda3/lib/python3.8/config-3.8-darwin/Makefile',
   'DATA'),
  ('tcl/msgs/en_in.msg',
   '/Users/cellis/opt/anaconda3/lib/tcl8.6/msgs/en_in.msg',
   'DATA'),
  ('tcl/msgs/kok.msg',
   '/Users/cellis/opt/anaconda3/lib/tcl8.6/msgs/kok.msg',
   'DATA'),
  ('tcl/msgs/ms.msg',
   '/Users/cellis/opt/anaconda3/lib/tcl8.6/msgs/ms.msg',
   'DATA'),
  ('tcl/msgs/ta.msg',
   '/Users/cellis/opt/anaconda3/lib/tcl8.6/msgs/ta.msg',
   'DATA'),
  ('tcl/encoding/cp857.enc',
   '/Users/cellis/opt/anaconda3/lib/tcl8.6/encoding/cp857.enc',
   'DATA'),
  ('tcl/msgs/zh.msg',
   '/Users/cellis/opt/anaconda3/lib/tcl8.6/msgs/zh.msg',
   'DATA'),
  ('tcl/encoding/cp1257.enc',
   '/Users/cellis/opt/anaconda3/lib/tcl8.6/encoding/cp1257.enc',
   'DATA'),
  ('tcl/msgs/nb.msg',
   '/Users/cellis/opt/anaconda3/lib/tcl8.6/msgs/nb.msg',
   'DATA'),
  ('tcl/encoding/macIceland.enc',
   '/Users/cellis/opt/anaconda3/lib/tcl8.6/encoding/macIceland.enc',
   'DATA'),
  ('tcl/encoding/macTurkish.enc',
   '/Users/cellis/opt/anaconda3/lib/tcl8.6/encoding/macTurkish.enc',
   'DATA'),
  ('tk/spinbox.tcl',
   '/Users/cellis/opt/anaconda3/lib/tk8.6/spinbox.tcl',
   'DATA'),
  ('tcl/auto.tcl', '/Users/cellis/opt/anaconda3/lib/tcl8.6/auto.tcl', 'DATA'),
  ('tcl/msgs/es_ni.msg',
   '/Users/cellis/opt/anaconda3/lib/tcl8.6/msgs/es_ni.msg',
   'DATA'),
  ('tcl/encoding/cp1253.enc',
   '/Users/cellis/opt/anaconda3/lib/tcl8.6/encoding/cp1253.enc',
   'DATA'),
  ('tcl/msgs/kl_gl.msg',
   '/Users/cellis/opt/anaconda3/lib/tcl8.6/msgs/kl_gl.msg',
   'DATA'),
  ('tk/msgs/cs.msg',
   '/Users/cellis/opt/anaconda3/lib/tk8.6/msgs/cs.msg',
   'DATA'),
  ('tcl/msgs/es_ec.msg',
   '/Users/cellis/opt/anaconda3/lib/tcl8.6/msgs/es_ec.msg',
   'DATA'),
  ('tk/images/pwrdLogo150.gif',
   '/Users/cellis/opt/anaconda3/lib/tk8.6/images/pwrdLogo150.gif',
   'DATA'),
  ('tcl/encoding/iso8859-13.enc',
   '/Users/cellis/opt/anaconda3/lib/tcl8.6/encoding/iso8859-13.enc',
   'DATA'),
  ('tcl/encoding/cp852.enc',
   '/Users/cellis/opt/anaconda3/lib/tcl8.6/encoding/cp852.enc',
   'DATA'),
  ('tcl/encoding/cp737.enc',
   '/Users/cellis/opt/anaconda3/lib/tcl8.6/encoding/cp737.enc',
   'DATA'),
  ('tcl/msgs/es_mx.msg',
   '/Users/cellis/opt/anaconda3/lib/tcl8.6/msgs/es_mx.msg',
   'DATA'),
  ('tk/ttk/vistaTheme.tcl',
   '/Users/cellis/opt/anaconda3/lib/tk8.6/ttk/vistaTheme.tcl',
   'DATA'),
  ('tcl/msgs/en_ph.msg',
   '/Users/cellis/opt/anaconda3/lib/tcl8.6/msgs/en_ph.msg',
   'DATA'),
  ('tk/mkpsenc.tcl',
   '/Users/cellis/opt/anaconda3/lib/tk8.6/mkpsenc.tcl',
   'DATA'),
  ('tcl/msgs/ko_kr.msg',
   '/Users/cellis/opt/anaconda3/lib/tcl8.6/msgs/ko_kr.msg',
   'DATA'),
  ('tcl/msgs/th.msg',
   '/Users/cellis/opt/anaconda3/lib/tcl8.6/msgs/th.msg',
   'DATA'),
  ('tcl/msgs/en_be.msg',
   '/Users/cellis/opt/anaconda3/lib/tcl8.6/msgs/en_be.msg',
   'DATA'),
  ('tcl/encoding/big5.enc',
   '/Users/cellis/opt/anaconda3/lib/tcl8.6/encoding/big5.enc',
   'DATA'),
  ('tk/msgs/da.msg',
   '/Users/cellis/opt/anaconda3/lib/tk8.6/msgs/da.msg',
   'DATA'),
  ('tcl/msgs/hi.msg',
   '/Users/cellis/opt/anaconda3/lib/tcl8.6/msgs/hi.msg',
   'DATA'),
  ('tcl/encoding/iso2022.enc',
   '/Users/cellis/opt/anaconda3/lib/tcl8.6/encoding/iso2022.enc',
   'DATA'),
  ('tcl/opt0.4/optparse.tcl',
   '/Users/cellis/opt/anaconda3/lib/tcl8.6/opt0.4/optparse.tcl',
   'DATA'),
  ('tk/tk.tcl', '/Users/cellis/opt/anaconda3/lib/tk8.6/tk.tcl', 'DATA'),
  ('tk/iconlist.tcl',
   '/Users/cellis/opt/anaconda3/lib/tk8.6/iconlist.tcl',
   'DATA'),
  ('tcl/msgs/fr.msg',
   '/Users/cellis/opt/anaconda3/lib/tcl8.6/msgs/fr.msg',
   'DATA'),
  ('tk/images/README',
   '/Users/cellis/opt/anaconda3/lib/tk8.6/images/README',
   'DATA'),
  ('tcl/init.tcl', '/Users/cellis/opt/anaconda3/lib/tcl8.6/init.tcl', 'DATA'),
  ('tcl/msgs/es_co.msg',
   '/Users/cellis/opt/anaconda3/lib/tcl8.6/msgs/es_co.msg',
   'DATA'),
  ('tcl/msgs/id.msg',
   '/Users/cellis/opt/anaconda3/lib/tcl8.6/msgs/id.msg',
   'DATA'),
  ('tk/text.tcl', '/Users/cellis/opt/anaconda3/lib/tk8.6/text.tcl', 'DATA'),
  ('tcl/msgs/mt.msg',
   '/Users/cellis/opt/anaconda3/lib/tcl8.6/msgs/mt.msg',
   'DATA'),
  ('tk/ttk/ttk.tcl',
   '/Users/cellis/opt/anaconda3/lib/tk8.6/ttk/ttk.tcl',
   'DATA'),
  ('tk/tkAppInit.c',
   '/Users/cellis/opt/anaconda3/lib/tk8.6/tkAppInit.c',
   'DATA'),
  ('tk/ttk/xpTheme.tcl',
   '/Users/cellis/opt/anaconda3/lib/tk8.6/ttk/xpTheme.tcl',
   'DATA'),
  ('tcl/msgs/hr.msg',
   '/Users/cellis/opt/anaconda3/lib/tcl8.6/msgs/hr.msg',
   'DATA'),
  ('tcl/http1.0/pkgIndex.tcl',
   '/Users/cellis/opt/anaconda3/lib/tcl8.6/http1.0/pkgIndex.tcl',
   'DATA'),
  ('tcl/msgs/mr.msg',
   '/Users/cellis/opt/anaconda3/lib/tcl8.6/msgs/mr.msg',
   'DATA'),
  ('tcl/encoding/cp950.enc',
   '/Users/cellis/opt/anaconda3/lib/tcl8.6/encoding/cp950.enc',
   'DATA'),
  ('tcl/msgs/sl.msg',
   '/Users/cellis/opt/anaconda3/lib/tcl8.6/msgs/sl.msg',
   'DATA'),
  ('tcl/encoding/iso8859-10.enc',
   '/Users/cellis/opt/anaconda3/lib/tcl8.6/encoding/iso8859-10.enc',
   'DATA'),
  ('tcl/msgs/es_bo.msg',
   '/Users/cellis/opt/anaconda3/lib/tcl8.6/msgs/es_bo.msg',
   'DATA'),
  ('tcl/encoding/iso8859-1.enc',
   '/Users/cellis/opt/anaconda3/lib/tcl8.6/encoding/iso8859-1.enc',
   'DATA'),
  ('tcl/encoding/iso8859-15.enc',
   '/Users/cellis/opt/anaconda3/lib/tcl8.6/encoding/iso8859-15.enc',
   'DATA'),
  ('tcl/encoding/iso2022-kr.enc',
   '/Users/cellis/opt/anaconda3/lib/tcl8.6/encoding/iso2022-kr.enc',
   'DATA'),
  ('tcl/msgs/kw_gb.msg',
   '/Users/cellis/opt/anaconda3/lib/tcl8.6/msgs/kw_gb.msg',
   'DATA'),
  ('tcl/msgs/es_pe.msg',
   '/Users/cellis/opt/anaconda3/lib/tcl8.6/msgs/es_pe.msg',
   'DATA'),
  ('tcl/msgs/ar_sy.msg',
   '/Users/cellis/opt/anaconda3/lib/tcl8.6/msgs/ar_sy.msg',
   'DATA'),
  ('tcl/msgs/mk.msg',
   '/Users/cellis/opt/anaconda3/lib/tcl8.6/msgs/mk.msg',
   'DATA'),
  ('lib2to3/PatternGrammar.txt',
   '/Users/cellis/opt/anaconda3/lib/python3.8/lib2to3/PatternGrammar.txt',
   'DATA'),
  ('tcl/msgs/en_nz.msg',
   '/Users/cellis/opt/anaconda3/lib/tcl8.6/msgs/en_nz.msg',
   'DATA'),
  ('tk/ttk/cursors.tcl',
   '/Users/cellis/opt/anaconda3/lib/tk8.6/ttk/cursors.tcl',
   'DATA'),
  ('tk/ttk/winTheme.tcl',
   '/Users/cellis/opt/anaconda3/lib/tk8.6/ttk/winTheme.tcl',
   'DATA'),
  ('tcl/encoding/iso8859-16.enc',
   '/Users/cellis/opt/anaconda3/lib/tcl8.6/encoding/iso8859-16.enc',
   'DATA'),
  ('tcl/tclAppInit.c',
   '/Users/cellis/opt/anaconda3/lib/tcl8.6/tclAppInit.c',
   'DATA'),
  ('tcl/msgs/es.msg',
   '/Users/cellis/opt/anaconda3/lib/tcl8.6/msgs/es.msg',
   'DATA'),
  ('tk/images/pwrdLogo.eps',
   '/Users/cellis/opt/anaconda3/lib/tk8.6/images/pwrdLogo.eps',
   'DATA'),
  ('tcl/msgs/hi_in.msg',
   '/Users/cellis/opt/anaconda3/lib/tcl8.6/msgs/hi_in.msg',
   'DATA'),
  ('tk/bgerror.tcl',
   '/Users/cellis/opt/anaconda3/lib/tk8.6/bgerror.tcl',
   'DATA'),
  ('tcl/msgs/id_id.msg',
   '/Users/cellis/opt/anaconda3/lib/tcl8.6/msgs/id_id.msg',
   'DATA'),
  ('tcl/msgs/lt.msg',
   '/Users/cellis/opt/anaconda3/lib/tcl8.6/msgs/lt.msg',
   'DATA'),
  ('tcl/msgs/bg.msg',
   '/Users/cellis/opt/anaconda3/lib/tcl8.6/msgs/bg.msg',
   'DATA'),
  ('tk/tclIndex', '/Users/cellis/opt/anaconda3/lib/tk8.6/tclIndex', 'DATA'),
  ('tk/ttk/fonts.tcl',
   '/Users/cellis/opt/anaconda3/lib/tk8.6/ttk/fonts.tcl',
   'DATA'),
  ('tcl/tm.tcl', '/Users/cellis/opt/anaconda3/lib/tcl8.6/tm.tcl', 'DATA'),
  ('tk/menu.tcl', '/Users/cellis/opt/anaconda3/lib/tk8.6/menu.tcl', 'DATA'),
  ('tcl/msgs/ru_ua.msg',
   '/Users/cellis/opt/anaconda3/lib/tcl8.6/msgs/ru_ua.msg',
   'DATA'),
  ('tcl/encoding/cp866.enc',
   '/Users/cellis/opt/anaconda3/lib/tcl8.6/encoding/cp866.enc',
   'DATA'),
  ('importlib_metadata-1.7.0-py3.8.egg-info/direct_url.json',
   '/Users/cellis/opt/anaconda3/lib/python3.8/site-packages/importlib_metadata-1.7.0.dist-info/direct_url.json',
   'DATA'),
  ('tcl/encoding/iso2022-jp.enc',
   '/Users/cellis/opt/anaconda3/lib/tcl8.6/encoding/iso2022-jp.enc',
   'DATA'),
  ('tcl/msgs/eu_es.msg',
   '/Users/cellis/opt/anaconda3/lib/tcl8.6/msgs/eu_es.msg',
   'DATA'),
  ('tcl/encoding/cp1252.enc',
   '/Users/cellis/opt/anaconda3/lib/tcl8.6/encoding/cp1252.enc',
   'DATA'),
  ('tcl/encoding/ascii.enc',
   '/Users/cellis/opt/anaconda3/lib/tcl8.6/encoding/ascii.enc',
   'DATA'),
  ('tcl/encoding/cp1256.enc',
   '/Users/cellis/opt/anaconda3/lib/tcl8.6/encoding/cp1256.enc',
   'DATA'),
  ('tcl/msgs/es_do.msg',
   '/Users/cellis/opt/anaconda3/lib/tcl8.6/msgs/es_do.msg',
   'DATA'),
  ('tk/ttk/treeview.tcl',
   '/Users/cellis/opt/anaconda3/lib/tk8.6/ttk/treeview.tcl',
   'DATA'),
  ('tcl/msgs/nl.msg',
   '/Users/cellis/opt/anaconda3/lib/tcl8.6/msgs/nl.msg',
   'DATA'),
  ('tcl/msgs/es_pr.msg',
   '/Users/cellis/opt/anaconda3/lib/tcl8.6/msgs/es_pr.msg',
   'DATA'),
  ('tk/msgs/el.msg',
   '/Users/cellis/opt/anaconda3/lib/tk8.6/msgs/el.msg',
   'DATA'),
  ('tcl/msgs/eu.msg',
   '/Users/cellis/opt/anaconda3/lib/tcl8.6/msgs/eu.msg',
   'DATA'),
  ('tcl/tclIndex', '/Users/cellis/opt/anaconda3/lib/tcl8.6/tclIndex', 'DATA'),
  ('tk/ttk/combobox.tcl',
   '/Users/cellis/opt/anaconda3/lib/tk8.6/ttk/combobox.tcl',
   'DATA'),
  ('importlib_metadata-1.7.0-py3.8.egg-info/RECORD',
   '/Users/cellis/opt/anaconda3/lib/python3.8/site-packages/importlib_metadata-1.7.0.dist-info/RECORD',
   'DATA'),
  ('tcl/msgs/en_zw.msg',
   '/Users/cellis/opt/anaconda3/lib/tcl8.6/msgs/en_zw.msg',
   'DATA'),
  ('tcl/msgs/ar_jo.msg',
   '/Users/cellis/opt/anaconda3/lib/tcl8.6/msgs/ar_jo.msg',
   'DATA'),
  ('tcl/msgs/uk.msg',
   '/Users/cellis/opt/anaconda3/lib/tcl8.6/msgs/uk.msg',
   'DATA'),
  ('tcl/msgs/fr_be.msg',
   '/Users/cellis/opt/anaconda3/lib/tcl8.6/msgs/fr_be.msg',
   'DATA'),
  ('tcl/msgs/kw.msg',
   '/Users/cellis/opt/anaconda3/lib/tcl8.6/msgs/kw.msg',
   'DATA'),
  ('importlib_metadata-1.7.0-py3.8.egg-info/INSTALLER',
   '/Users/cellis/opt/anaconda3/lib/python3.8/site-packages/importlib_metadata-1.7.0.dist-info/INSTALLER',
   'DATA'),
  ('tcl/encoding/iso8859-4.enc',
   '/Users/cellis/opt/anaconda3/lib/tcl8.6/encoding/iso8859-4.enc',
   'DATA'),
  ('tcl/package.tcl',
   '/Users/cellis/opt/anaconda3/lib/tcl8.6/package.tcl',
   'DATA'),
  ('tk/ttk/notebook.tcl',
   '/Users/cellis/opt/anaconda3/lib/tk8.6/ttk/notebook.tcl',
   'DATA'),
  ('tcl/msgs/ar_in.msg',
   '/Users/cellis/opt/anaconda3/lib/tcl8.6/msgs/ar_in.msg',
   'DATA'),
  ('tk/msgs/eo.msg',
   '/Users/cellis/opt/anaconda3/lib/tk8.6/msgs/eo.msg',
   'DATA')],
 False,
 False,
 False,
 [])
