('/Users/cellis/opt/anaconda3/lib/tk8.6',
 'tk',
 ['demos', '*.lib', 'tkConfig.sh'],
 'DATA',
 [('tk/panedwindow.tcl',
   '/Users/cellis/opt/anaconda3/lib/tk8.6/panedwindow.tcl',
   'DATA'),
  ('tk/tkfbox.tcl', '/Users/cellis/opt/anaconda3/lib/tk8.6/tkfbox.tcl', 'DATA'),
  ('tk/msgbox.tcl', '/Users/cellis/opt/anaconda3/lib/tk8.6/msgbox.tcl', 'DATA'),
  ('tk/button.tcl', '/Users/cellis/opt/anaconda3/lib/tk8.6/button.tcl', 'DATA'),
  ('tk/text.tcl', '/Users/cellis/opt/anaconda3/lib/tk8.6/text.tcl', 'DATA'),
  ('tk/megawidget.tcl',
   '/Users/cellis/opt/anaconda3/lib/tk8.6/megawidget.tcl',
   'DATA'),
  ('tk/tk.tcl', '/Users/cellis/opt/anaconda3/lib/tk8.6/tk.tcl', 'DATA'),
  ('tk/fontchooser.tcl',
   '/Users/cellis/opt/anaconda3/lib/tk8.6/fontchooser.tcl',
   'DATA'),
  ('tk/obsolete.tcl',
   '/Users/cellis/opt/anaconda3/lib/tk8.6/obsolete.tcl',
   'DATA'),
  ('tk/mkpsenc.tcl',
   '/Users/cellis/opt/anaconda3/lib/tk8.6/mkpsenc.tcl',
   'DATA'),
  ('tk/spinbox.tcl',
   '/Users/cellis/opt/anaconda3/lib/tk8.6/spinbox.tcl',
   'DATA'),
  ('tk/unsupported.tcl',
   '/Users/cellis/opt/anaconda3/lib/tk8.6/unsupported.tcl',
   'DATA'),
  ('tk/clrpick.tcl',
   '/Users/cellis/opt/anaconda3/lib/tk8.6/clrpick.tcl',
   'DATA'),
  ('tk/entry.tcl', '/Users/cellis/opt/anaconda3/lib/tk8.6/entry.tcl', 'DATA'),
  ('tk/console.tcl',
   '/Users/cellis/opt/anaconda3/lib/tk8.6/console.tcl',
   'DATA'),
  ('tk/icons.tcl', '/Users/cellis/opt/anaconda3/lib/tk8.6/icons.tcl', 'DATA'),
  ('tk/choosedir.tcl',
   '/Users/cellis/opt/anaconda3/lib/tk8.6/choosedir.tcl',
   'DATA'),
  ('tk/menu.tcl', '/Users/cellis/opt/anaconda3/lib/tk8.6/menu.tcl', 'DATA'),
  ('tk/dialog.tcl', '/Users/cellis/opt/anaconda3/lib/tk8.6/dialog.tcl', 'DATA'),
  ('tk/comdlg.tcl', '/Users/cellis/opt/anaconda3/lib/tk8.6/comdlg.tcl', 'DATA'),
  ('tk/tclIndex', '/Users/cellis/opt/anaconda3/lib/tk8.6/tclIndex', 'DATA'),
  ('tk/tearoff.tcl',
   '/Users/cellis/opt/anaconda3/lib/tk8.6/tearoff.tcl',
   'DATA'),
  ('tk/pkgIndex.tcl',
   '/Users/cellis/opt/anaconda3/lib/tk8.6/pkgIndex.tcl',
   'DATA'),
  ('tk/tkAppInit.c',
   '/Users/cellis/opt/anaconda3/lib/tk8.6/tkAppInit.c',
   'DATA'),
  ('tk/bgerror.tcl',
   '/Users/cellis/opt/anaconda3/lib/tk8.6/bgerror.tcl',
   'DATA'),
  ('tk/scrlbar.tcl',
   '/Users/cellis/opt/anaconda3/lib/tk8.6/scrlbar.tcl',
   'DATA'),
  ('tk/safetk.tcl', '/Users/cellis/opt/anaconda3/lib/tk8.6/safetk.tcl', 'DATA'),
  ('tk/iconlist.tcl',
   '/Users/cellis/opt/anaconda3/lib/tk8.6/iconlist.tcl',
   'DATA'),
  ('tk/optMenu.tcl',
   '/Users/cellis/opt/anaconda3/lib/tk8.6/optMenu.tcl',
   'DATA'),
  ('tk/xmfbox.tcl', '/Users/cellis/opt/anaconda3/lib/tk8.6/xmfbox.tcl', 'DATA'),
  ('tk/listbox.tcl',
   '/Users/cellis/opt/anaconda3/lib/tk8.6/listbox.tcl',
   'DATA'),
  ('tk/focus.tcl', '/Users/cellis/opt/anaconda3/lib/tk8.6/focus.tcl', 'DATA'),
  ('tk/scale.tcl', '/Users/cellis/opt/anaconda3/lib/tk8.6/scale.tcl', 'DATA'),
  ('tk/palette.tcl',
   '/Users/cellis/opt/anaconda3/lib/tk8.6/palette.tcl',
   'DATA'),
  ('tk/msgs/pl.msg',
   '/Users/cellis/opt/anaconda3/lib/tk8.6/msgs/pl.msg',
   'DATA'),
  ('tk/msgs/el.msg',
   '/Users/cellis/opt/anaconda3/lib/tk8.6/msgs/el.msg',
   'DATA'),
  ('tk/msgs/sv.msg',
   '/Users/cellis/opt/anaconda3/lib/tk8.6/msgs/sv.msg',
   'DATA'),
  ('tk/msgs/en.msg',
   '/Users/cellis/opt/anaconda3/lib/tk8.6/msgs/en.msg',
   'DATA'),
  ('tk/msgs/eo.msg',
   '/Users/cellis/opt/anaconda3/lib/tk8.6/msgs/eo.msg',
   'DATA'),
  ('tk/msgs/ru.msg',
   '/Users/cellis/opt/anaconda3/lib/tk8.6/msgs/ru.msg',
   'DATA'),
  ('tk/msgs/fr.msg',
   '/Users/cellis/opt/anaconda3/lib/tk8.6/msgs/fr.msg',
   'DATA'),
  ('tk/msgs/nl.msg',
   '/Users/cellis/opt/anaconda3/lib/tk8.6/msgs/nl.msg',
   'DATA'),
  ('tk/msgs/cs.msg',
   '/Users/cellis/opt/anaconda3/lib/tk8.6/msgs/cs.msg',
   'DATA'),
  ('tk/msgs/en_gb.msg',
   '/Users/cellis/opt/anaconda3/lib/tk8.6/msgs/en_gb.msg',
   'DATA'),
  ('tk/msgs/es.msg',
   '/Users/cellis/opt/anaconda3/lib/tk8.6/msgs/es.msg',
   'DATA'),
  ('tk/msgs/hu.msg',
   '/Users/cellis/opt/anaconda3/lib/tk8.6/msgs/hu.msg',
   'DATA'),
  ('tk/msgs/da.msg',
   '/Users/cellis/opt/anaconda3/lib/tk8.6/msgs/da.msg',
   'DATA'),
  ('tk/msgs/pt.msg',
   '/Users/cellis/opt/anaconda3/lib/tk8.6/msgs/pt.msg',
   'DATA'),
  ('tk/msgs/de.msg',
   '/Users/cellis/opt/anaconda3/lib/tk8.6/msgs/de.msg',
   'DATA'),
  ('tk/msgs/it.msg',
   '/Users/cellis/opt/anaconda3/lib/tk8.6/msgs/it.msg',
   'DATA'),
  ('tk/images/logoMed.gif',
   '/Users/cellis/opt/anaconda3/lib/tk8.6/images/logoMed.gif',
   'DATA'),
  ('tk/images/logo.eps',
   '/Users/cellis/opt/anaconda3/lib/tk8.6/images/logo.eps',
   'DATA'),
  ('tk/images/pwrdLogo150.gif',
   '/Users/cellis/opt/anaconda3/lib/tk8.6/images/pwrdLogo150.gif',
   'DATA'),
  ('tk/images/tai-ku.gif',
   '/Users/cellis/opt/anaconda3/lib/tk8.6/images/tai-ku.gif',
   'DATA'),
  ('tk/images/README',
   '/Users/cellis/opt/anaconda3/lib/tk8.6/images/README',
   'DATA'),
  ('tk/images/pwrdLogo.eps',
   '/Users/cellis/opt/anaconda3/lib/tk8.6/images/pwrdLogo.eps',
   'DATA'),
  ('tk/images/pwrdLogo200.gif',
   '/Users/cellis/opt/anaconda3/lib/tk8.6/images/pwrdLogo200.gif',
   'DATA'),
  ('tk/images/logoLarge.gif',
   '/Users/cellis/opt/anaconda3/lib/tk8.6/images/logoLarge.gif',
   'DATA'),
  ('tk/images/pwrdLogo175.gif',
   '/Users/cellis/opt/anaconda3/lib/tk8.6/images/pwrdLogo175.gif',
   'DATA'),
  ('tk/images/pwrdLogo75.gif',
   '/Users/cellis/opt/anaconda3/lib/tk8.6/images/pwrdLogo75.gif',
   'DATA'),
  ('tk/images/pwrdLogo100.gif',
   '/Users/cellis/opt/anaconda3/lib/tk8.6/images/pwrdLogo100.gif',
   'DATA'),
  ('tk/images/logo100.gif',
   '/Users/cellis/opt/anaconda3/lib/tk8.6/images/logo100.gif',
   'DATA'),
  ('tk/images/logo64.gif',
   '/Users/cellis/opt/anaconda3/lib/tk8.6/images/logo64.gif',
   'DATA'),
  ('tk/ttk/panedwindow.tcl',
   '/Users/cellis/opt/anaconda3/lib/tk8.6/ttk/panedwindow.tcl',
   'DATA'),
  ('tk/ttk/scrollbar.tcl',
   '/Users/cellis/opt/anaconda3/lib/tk8.6/ttk/scrollbar.tcl',
   'DATA'),
  ('tk/ttk/sizegrip.tcl',
   '/Users/cellis/opt/anaconda3/lib/tk8.6/ttk/sizegrip.tcl',
   'DATA'),
  ('tk/ttk/button.tcl',
   '/Users/cellis/opt/anaconda3/lib/tk8.6/ttk/button.tcl',
   'DATA'),
  ('tk/ttk/defaults.tcl',
   '/Users/cellis/opt/anaconda3/lib/tk8.6/ttk/defaults.tcl',
   'DATA'),
  ('tk/ttk/utils.tcl',
   '/Users/cellis/opt/anaconda3/lib/tk8.6/ttk/utils.tcl',
   'DATA'),
  ('tk/ttk/ttk.tcl',
   '/Users/cellis/opt/anaconda3/lib/tk8.6/ttk/ttk.tcl',
   'DATA'),
  ('tk/ttk/treeview.tcl',
   '/Users/cellis/opt/anaconda3/lib/tk8.6/ttk/treeview.tcl',
   'DATA'),
  ('tk/ttk/classicTheme.tcl',
   '/Users/cellis/opt/anaconda3/lib/tk8.6/ttk/classicTheme.tcl',
   'DATA'),
  ('tk/ttk/spinbox.tcl',
   '/Users/cellis/opt/anaconda3/lib/tk8.6/ttk/spinbox.tcl',
   'DATA'),
  ('tk/ttk/clamTheme.tcl',
   '/Users/cellis/opt/anaconda3/lib/tk8.6/ttk/clamTheme.tcl',
   'DATA'),
  ('tk/ttk/aquaTheme.tcl',
   '/Users/cellis/opt/anaconda3/lib/tk8.6/ttk/aquaTheme.tcl',
   'DATA'),
  ('tk/ttk/xpTheme.tcl',
   '/Users/cellis/opt/anaconda3/lib/tk8.6/ttk/xpTheme.tcl',
   'DATA'),
  ('tk/ttk/entry.tcl',
   '/Users/cellis/opt/anaconda3/lib/tk8.6/ttk/entry.tcl',
   'DATA'),
  ('tk/ttk/notebook.tcl',
   '/Users/cellis/opt/anaconda3/lib/tk8.6/ttk/notebook.tcl',
   'DATA'),
  ('tk/ttk/fonts.tcl',
   '/Users/cellis/opt/anaconda3/lib/tk8.6/ttk/fonts.tcl',
   'DATA'),
  ('tk/ttk/vistaTheme.tcl',
   '/Users/cellis/opt/anaconda3/lib/tk8.6/ttk/vistaTheme.tcl',
   'DATA'),
  ('tk/ttk/altTheme.tcl',
   '/Users/cellis/opt/anaconda3/lib/tk8.6/ttk/altTheme.tcl',
   'DATA'),
  ('tk/ttk/combobox.tcl',
   '/Users/cellis/opt/anaconda3/lib/tk8.6/ttk/combobox.tcl',
   'DATA'),
  ('tk/ttk/winTheme.tcl',
   '/Users/cellis/opt/anaconda3/lib/tk8.6/ttk/winTheme.tcl',
   'DATA'),
  ('tk/ttk/scale.tcl',
   '/Users/cellis/opt/anaconda3/lib/tk8.6/ttk/scale.tcl',
   'DATA'),
  ('tk/ttk/menubutton.tcl',
   '/Users/cellis/opt/anaconda3/lib/tk8.6/ttk/menubutton.tcl',
   'DATA'),
  ('tk/ttk/progress.tcl',
   '/Users/cellis/opt/anaconda3/lib/tk8.6/ttk/progress.tcl',
   'DATA'),
  ('tk/ttk/cursors.tcl',
   '/Users/cellis/opt/anaconda3/lib/tk8.6/ttk/cursors.tcl',
   'DATA')])
